	Leafname	Compound	KS_index	geneSeqID	Clade
0	leinamycin|AF484556|69681-82994|+|?|LnmI|AAN85522|0OXZ|KS1|KS1	leinamycin	KS1	AF484556	III_c
1	virginiamycin|AB283030|18576-26345|-|?|VirH|BAF50720|0OXZ|KS1|KS7	virginiamycin	KS7	AB283030	III_c
2	griseoviridin|JX508597|91257-99092|+|?|SgvE4|AGN74895|?|KS1|KS7	griseoviridin	KS7	JX508597	III_c
3	rhizoxins|AM411073|11310-31478|+|?|RhiB|CAL69889|0OXZ|KS1|KS2	rhizoxins	KS2	AM411073	III_c
4	chivosazole|DQ065771|47872-61797|+|?|ChiD|AAY89051|0OXZ|KS1|KS10	chivosazole	KS10	DQ065771	III_c
5	rhizopodin|FR854394|49812-73226|+|?|RizD|CCA89328|?|KS1|KS11	rhizopodin	KS11	FR854394	III_c
6	disorazole|DQ013294|52550-63937|+|?|DszC|AAY32966|0OXZ|KS1|KS9	disorazole	KS9	DQ013294	III_c
7	thailanstatin|JX307851|7401-22394|+|?|TstC|AGN11880|?|KS2|KS2	thailanstatin	KS2	JX307851	III_b
8	FR901464|HM047288|14687-29872|+|?|Fr9C|ADH01484|?|KS2|KS2	FR901464	KS2	HM047288	III_b
9	tolytoxin|KR857271|34607-66052|+|?|?|AKQ22650|?|KS?|KS11	tolytoxin	KS11	KR857271	III_b
10	misakinolide|KR857273|60103-73629|+|?|?|AKQ22697|0dH|KS?|KS11	misakinolide	KS11	KR857273	III_b
11	luminaolid|KR857272|60457-73968|+|?|?|AKQ22670|?|?|KS11	luminaolid	KS11	KR857272	III_b
12	thailandamide|CP000085|1953925-1960173|-|?|BTH_II1664|ABC34599|0ENOLETH|KS1|KS16	thailandamide	KS16	CP000085	III_b
13	oxazolomycin|EF552687|43715-52495|+|?|OzmJ|ABS90471|0KlOM|KS2|KS7	oxazolomycin	KS7	EF552687	III_b
14	bryostatin|DQ889941|17900-34045|+|?|BryC|ABM63528|0dH|KS4|KS11	bryostatin	KS11	DQ889941	III_b
15	nosperin|GQ979609|17094-41852|+|?|NspC|ADA69239||KS5|KS8	nosperin	KS8	GQ979609	III_b
16	FR901464|HM047288|70796-79954|+|?|Fr9I|ADH01490|?|KS1|KS10	FR901464	KS10	HM047288	III_a
17	thailanstatin|JX307851|61206-70391|+|?|TstI|AGN11883|?|KS1|KS11	thailanstatin	KS11	JX307851	III_a
18	rhizopodin|FR854394|73223-85105|+|?|RizE|CCA89329|?|KS3|KS19	rhizopodin	KS19	FR854394	III_a
19	oocydin_Ddad|CP001654|1675427-1682518|+|?|OocR|ACS85231|?|KS1|KS11	oocydin_Ddad	KS11	CP001654	III_a
20	oocydin_Smar|JX315603|49446-56243|+|?|OocR|AFX60317|?|KS1|KS11	oocydin_Smar	KS11	JX315603	III_a
21	diaphorin|CP003468|230695-257754|+|?|DipT|AGS06887|?|KS1|KS4	diaphorin	KS4	CP003468	III_a
22	pederin|AY328023|36226-62031|+|?|PedF|AAS47564|0hemi|KS1|KS4	pederin	KS4	AY328023	III_a
23	onnamide|AY688304|21358-36513|+|?|OnnI|AAV97877|0hemi|KS1|KS4	onnamide	KS4	AY688304	III_a
24	nosperin|GQ979609|17094-41852|+|?|NspC|ADA69239||KS1|KS4	nosperin	KS4	GQ979609	III_a
25	mupirocin|AF318063|1706-10243|+|?|MmpA|AAM12909|0dH|KS1|KS1	mupirocin	KS1	AF318063	III_a
26	psymberin|FJ823461|20598-58535|+|?|PsyD|ADA82585|0lH|KS1|KS3	psymberin	KS3	FJ823461	III_a
27	myxovirescin|CP000113|4756846-4783794|-|?|Ta1|ABF85931|0H|KS3|KS3	myxovirescin	KS3	CP000113	III_a
28	oocydin_Smar|JX315603|27847-47466|+|?|OocN|AFX60313|?|KS1|KS5	oocydin_Smar	KS5	JX315603	III_a
29	oocydin_Ddad|CP001654|1652738-1673368|+|?|OocN|ACS85227|?|KS1|KS5	oocydin_Ddad	KS5	CP001654	III_a
30	phormidolide|ALVN01000014|339818-353110|-|?|?|EKU96420|?|KS1|KS9	phormidolide	KS9	ALVN01000014	III_a
31	rhizoxins|AM411073|3798-10880|+|?|RhiA|CAL69888|0AcGNAT|KS1|KS1	rhizoxins	KS1	AM411073	III_a
32	bacillaene_Bamy|AJ634060|63662-71110|+|?|BaeR|CAG23961|0shDM|KS2|KS14	bacillaene_Bamy	KS14	AJ634060	III_a
33	bacillaene_Bsub|AL009126|1850890-1858521|+|?|PksR|CAB13606|?|KS2|KS15	bacillaene_Bsub	KS15	AL009126	III_a
34	seudotrienic_acid|AKJU01000004|15329-29989|-|?|?|EJM18770|?|KS2|KS5	seudotrienic_acid	KS5	AKJU01000004	III_a
35	thailandamide|CP000085|2011510-2028396|-|?|BTH_II1674|ABC34832|0eD|KS4|KS4	thailandamide	KS4	CP000085	III_a
36	oocydin_Ddad|CP001654|1652738-1673368|+|?|OocN|ACS85227|?|KS6|KS10	oocydin_Ddad	KS10	CP001654	III_a
37	oocydin_Smar|JX315603|27847-47466|+|?|OocN|AFX60313|?|KS6|KS10	oocydin_Smar	KS10	JX315603	III_a
38	etnangien|NC_010162|40987-56199|+|?|EtnG|EtnG|0Hbimod|KS4|KS14	etnangien	KS14	NC_010162	III_g
39	difficidin|AJ634062|30570-46184|+|?|DifI|CAJ57409|H_D|KS4|KS10	difficidin	KS10	AJ634062	III_g
40	elansolid_Csan|HQ680975|38576-43660|+|?|ElaO|AEC04361|?|KS2|KS7	elansolid_Csan	KS7	HQ680975	III_g
41	elansolid_Cpin|CP001699|6736094-6741184|-|?|ElsN|ACU62723|H|KS2|KS7	elansolid_Cpin	KS7	CP001699	III_g
42	basiliskamides|NZ_AXBT01000013|102142-112479|-|?|P615_14880|WP_022584873|?|KS3|KS5	basiliskamides	KS5	NZ_AXBT01000013	III_g
43	seudotrienic_acid|AKJU01000004|30085-40821|-|?|?|EJM18771|?|KS3|KS3	seudotrienic_acid	KS3	AKJU01000004	III_f
44	elansolid_Csan|HQ680975|43662-57434|+|?|ElaP|AEC04362|?|KS2|KS9	elansolid_Csan	KS9	HQ680975	III_f
45	elansolid_Cpin|CP001699|6722326-6736092|-|?|ElsO|ACU62722|H|KS2|KS9	elansolid_Cpin	KS9	CP001699	III_f
46	bacillaene_Bsub|AL009126|1821553-1834341|+|?|PksM|CAB13603|?|KS3|KS10	bacillaene_Bsub	KS10	AL009126	III_f
47	oocydin_Smar|JX315603|56236-72084|+|?|OocS|AFX60318|?|KS3|KS15	oocydin_Smar	KS15	JX315603	III_f
48	oocydin_Ddad|CP001654|1682511-1699349|+|?|OocS|ACS85232|?|KS3|KS15	oocydin_Ddad	KS15	CP001654	III_f
49	etnangien|NC_010162|66952-84873|+|?|EtnI|EtnI|lH|KS4|KS20	etnangien	KS20	NC_010162	III_f
50	etnangien|NC_010162|40987-56199|+|?|EtnG|EtnG|lH|KS2|KS12	etnangien	KS12	NC_010162	III_f
51	etnangien|NC_010162|30104-40990|+|?|EtnF|EtnF|lH|KS3|KS10	etnangien	KS10	NC_010162	III_f
52	bryostatin|DQ889941|34048-47229|+|?|BryX|ABM63529|?|KS3|KS16	bryostatin	KS16	DQ889941	III_e
53	FR901464|HM047288|14687-29872|+|?|Fr9C|ADH01484|?|KS3|KS3	FR901464	KS3	HM047288	III_e
54	thailanstatin|JX307851|7401-22394|+|?|TstC|AGN11880|?|KS3|KS3	thailanstatin	KS3	JX307851	III_e
55	oocydin_Ddad|CP001654|1682511-1699349|+|?|OocS|ACS85232|?|KS4|KS16	oocydin_Ddad	KS16	CP001654	III_e
56	oocydin_Smar|JX315603|56236-72084|+|?|OocS|AFX60318|?|KS4|KS16	oocydin_Smar	KS16	JX315603	III_e
57	phormidolide|ALVN01000014|326750-339679|-|?|?|EKU96419|?|KS3|KS15	phormidolide	KS15	ALVN01000014	III_e
58	elansolid_Cpin|CP001699|6703246-6708981|-|?|ElsQ|ACU62720|0D|KS1|KS14	elansolid_Cpin	KS14	CP001699	III_d
59	elansolid_Csan|HQ680975|70776-76511|+|?|ElaR|AEC04364|?|KS1|KS14	elansolid_Csan	KS14	HQ680975	III_d
60	pederin|AY328023|63384-82184|+|?|PedH|AAS47562|0D|KS4|KS13	pederin	KS13	AY328023	III_d
61	tolytoxin|KR857271|66122-90442|+|?|?|AKQ22649|?|KS?|KS19	tolytoxin	KS19	KR857271	III_d
62	luminaolid|KR857272|74003-91126|+|?|?|AKQ22669|?|?|KS18	luminaolid	KS18	KR857272	III_d
63	misakinolide|KR857273|73623-97673|+|?|?|AKQ22696|0eD|KS?|KS19	misakinolide	KS19	KR857273	III_d
64	sorangicin|HM584908|68228-83098|+|?|SorB|ADN68477|0zD|KS1|KS8	sorangicin	KS8	HM584908	III_d
65	bongkrekic_acid|JX173632|51038-63328|+|?|BonD|AFN27483|?|KS3|KS12	bongkrekic_acid	KS12	JX173632	III_d
66	sorangicin|HM584908|133608-141434|+|?|SorI|ADN68484|0zD|KS2|KS24	sorangicin	KS24	HM584908	III_d
67	enacyloxin|CP000442|402538-409929|-|?|Bamb_5919|ABI91464|?|KS2|KS11	enacyloxin	KS11	CP000442	III_d
68	seudotrienic_acid|AKJU01000004|953-5734|-|?|?|EJM18768|?|KS1|KS9	seudotrienic_acid	KS9	AKJU01000004	III_d
69	rhizoxins|AM411073|74139-81989|+|?|RhiF|CAL69894|0eD|KS2|KS16	rhizoxins	KS16	AM411073	III_d
70	mupirocin|AF318063|49802-53377|+|?|MmpE|AAM12925|?|KS1|?	mupirocin	?	AF318063	III_d
71	disorazole|DQ013294|33783-52553|+|?|DszB|AAY32965|0zD|KS4|KS8	disorazole	KS8	DQ013294	III_d
72	rhizoxins|AM411073|47298-59777|+|?|RhiD|CAL69891|0shDdM|KS3|KS11	rhizoxins	KS11	AM411073	III_d
73	bacillaene_Bsub|AL009126|1850890-1858521|+|?|PksR|CAB13606|?|KS1|KS14	bacillaene_Bsub	KS14	AL009126	III_d
74	bacillaene_Bamy|AJ634060|63662-71110|+|?|BaeR|CAG23961|0shD|KS1|KS13	bacillaene_Bamy	KS13	AJ634060	III_d
75	onnamide|AY688304|21358-36513|+|?|OnnI|AAV97877|0R|KS?|KS10	onnamide	KS10	AY688304	III_d
76	nosperin|GQ979609|17094-41852|+|?|NspC|ADA69239||KS3|KS6	nosperin	KS6	GQ979609	III_d
77	chivosazole|DQ065771|76341-93941|+|?|ChiF|AAY89053|0zD|KS4|KS18	chivosazole	KS18	DQ065771	III_d
78	disorazole|DQ013294|52550-63937|+|?|DszC|AAY32966|0OXZ|KS2|KS10	disorazole	KS10	DQ013294	III_d
79	rhizopodin|FR854394|43574-49810|+|?|RizC|CCA89327|?|KS2|KS10	rhizopodin	KS10	FR854394	III_d
80	macrolactin|AJ634061|2329-14589|+|?|Pks2B|CAG23964|Acetyl|KS1|KS1	macrolactin	KS1	AJ634061	IV_d
81	corallopyronin|HM071004|34250-46456|-|?|CorK|ADI59533|acetyl|KS1|KS1b	corallopyronin	KS1b	HM071004	IV_d
82	corallopyronin|HM071004|34250-46456|-|?|corK|ADI59533|acetyl|KS1|KS7	corallopyronin	KS7	HM071004	IV_d
83	disorazole|DQ013294|15731-33766|+|?|DszA|AAY32964|start|KS1|KS1	disorazole	KS1	DQ013294	IV_d
84	misakinolide|KR857273|15190-33063|+|?|?|AKQ22699|?|KS?|KS1	misakinolide	KS1	KR857273	IV_d
85	tartrolon|CP001614|2286203-2299822|+|?|TrtD|ACR13997|?|KS1|KS1	tartrolon	KS1	CP001614	IV_e
86	thailanstatin|JX307851|7401-22394|+|?|TstC|AGN11880|?|KS1|KS1	thailanstatin	KS1	JX307851	IV_e
87	FR901464|HM047288|14687-29872|+|?|Fr9C|ADH01484|?|KS1|KS1	FR901464	KS1	HM047288	IV_e
88	bryostatin|DQ889941|57787-72453|+|?|BryA|ABM63537|dH|KS1|KS1	bryostatin	KS1	DQ889941	IV_e
89	phormidolide|ALVN01000014|378160-393333|-|?|?|EKU96424|?|KS1|KS1	phormidolide	KS1	ALVN01000014	IV_f
90	oocydin_Smar|JX315603|7252-18210|+|?|OocJ|AFX60309|?|KS1|KS1	oocydin_Smar	KS1	JX315603	IV_f
91	oocydin_Ddad|CP001654|1631306-1642741|+|?|OocJ|ACS85223|?|KS1|KS1	oocydin_Ddad	KS1	CP001654	IV_f
92	tartrolon|CP001614|2299866-2314709|+|?|TrtE|ACR12418|?|KS2|KS5	tartrolon	KS5	CP001614	III_h
93	difficidin|AJ634062|46189-53907|+|?|DifJ|CAJ57410|?|KS2|KS12	difficidin	KS12	AJ634062	III_h
94	thailandamide|CP000085|1989915-1995620|-|?|BTH_II1667|ABC34176|0eDM|KS2|KS8	thailandamide	KS8	CP000085	III_h
95	kalimantacin_batumin|GU479979|6732-30773|+|?|Bat2|ADD82940|0bimod|KS6|KS7	kalimantacin_batumin	KS7	GU479979	III_h
96	bongkrekic_acid|JX173632|11410-35136|+|?|BonA|AFN27480|?|KS6|KS6	bongkrekic_acid	KS6	JX173632	III_h
97	sorangicin|HM584908|44097-68231|+|?|SorA|ADN68476|0bimod|KS7|KS7	sorangicin	KS7	HM584908	III_h
98	sorangicin|HM584908|121857-133514|+|?|SorH|ADN68483|0bimod|KS3|KS22	sorangicin	KS22	HM584908	III_h
99	bacillaene_Bsub|AL009126|1792806-1807937|+|?|PksJ|CAB13589|?|KS3|KS3	bacillaene_Bsub	KS3	AL009126	III_h
100	bacillaene_Bamy|AJ634060|8427-23375|+|?|BaeJ|CAG23957|0Hbimod|KS3|KS3	bacillaene_Bamy	KS3	AJ634060	III_h
101	bacillaene_Bamy|AJ634060|23377-36804|+|?|BaeL|CAG23958|0Hbimod|KS4|KS7	bacillaene_Bamy	KS7	AJ634060	III_h
102	bacillaene_Bsub|AL009126|1807921-1821537|+|?|PksL|CAB13602|?|KS4|KS7	bacillaene_Bsub	KS7	AL009126	III_h
103	misakinolide|KR857273|60103-73629|+|?|?|AKQ22697|0lH|KS?|KS14	misakinolide	KS14	KR857273	III_h
104	tolytoxin|KR857271|34607-66052|+|?|?|AKQ22650|?|KS?|KS14	tolytoxin	KS14	KR857271	III_h
105	luminaolid|KR857272|60457-73968|+|?|?|AKQ22670|?|?|KS14	luminaolid	KS14	KR857272	III_h
106	difficidin|AJ634062|18456-24752|+|?|DifG|CAG23978|0Hbimod|KS2|KS5	difficidin	KS5	AJ634062	III_h
107	oxazolomycin|EF552687|20505-43718|+|?|OzmH|ABS90470|0eD|KS4|KS4	oxazolomycin	KS4	EF552687	III_h
108	albicidin|AJ586576|30166-50805|+|?|AlbI|CAE52339|A|KS1|KS1	albicidin	KS1	AJ586576	IV_a
109	elansolid_Csan|HQ680975|10135-18318|+|?|ElaJ|AEC04356|?|KS1|KS1	elansolid_Csan	KS1	HQ680975	IV_a
110	elansolid_Cpin|CP001699|6761446-6769629|-|?|ElsI|ACU62728|A|KS1|KS1	elansolid_Cpin	KS1	CP001699	IV_a
111	bryostatin|DQ889941|34048-47229|+|?|BryX|ABM63529|GNAT|KS1|KS14	bryostatin	KS14	DQ889941	IV_b
112	basiliskamides|NZ_AXBT01000013|118589-125308|-|?|P615_14890|WP_022584875|?|KS1|KS1	basiliskamides	KS1	NZ_AXBT01000013	IV_b
113	kalimantacin_batumin|GU479979|1-6720|+|?|Bat1|ADD82939|Ac|KS1|KS1	kalimantacin_batumin	KS1	GU479979	IV_b
114	psymberin|FJ823461|4482-14375|+|?|PsyA|ADA82581|GNAT|KS1|KS1	psymberin	KS1	FJ823461	IV_b
115	diaphorin|CP003468|134072-149572|-|?|DipP|AGS06823|?|KS1|KS1	diaphorin	KS1	CP003468	IV_b
116	pederin|AY328023|4044-18689|+|?|PedI|AAR19304|AcGNAT|KS1|KS1	pederin	KS1	AY328023	IV_b
117	nosperin|GQ979609|1-15963|+|?|NspA|ADA69237||KS1|KS1	nosperin	KS1	GQ979609	IV_b§
118	onnamide|AY688304|1783-14913|+|?|OnnB|AAV97870|AcGNAT|KS1|KS1	onnamide	KS1	AY688304	IV_b
119	etnangien|NC_010162|3178-18618|+|?|EtnD|EtnD|Succ|KS1|KS1	etnangien	KS1	NC_010162	IV_b
120	9-methylstreptimidone|FR878059|13158-32300|+|?|SmdI|CCC21123|?|KS1|KS1	9-methylstreptimidone	KS1	FR878059	IV_b
121	cycloheximide|JX014302|9480-30236|+|?|ChxE|AFO59866|D|KS1|KS1	cycloheximide	KS1	JX014302	IV_b
122	sorangicin|HM584908|44097-68231|+|?|SorA|ADN68476|?|KS1|KS1	sorangicin	KS1	HM584908	IV_b
123	dorrigocin_migrastatin|GQ274953|7943-17521|+|?|MgsE|ACY01390|malonamyl?|KS1|KS1	dorrigocin_migrastatin	KS1	GQ274953	IV_b
124	virginiamycin|AB283030|37068-57962|-|?|VirA|BAF50727||KS1|KS1	virginiamycin	KS1	AB283030	IV_c
125	griseoviridin|JX508597|64158-77825|+|?|SgvE1|AGN74892|?|KS1|KS1	griseoviridin	KS1	JX508597	IV_c
126	mupirocin|AF318063|20958-40526|+|?|MmpD|AAM12913|Ac|KS1|KS5	mupirocin	KS5	AF318063	IV_c
127	thailandamide|CP000085|2011510-2028396|-|?|BTH_II1674|ABC34832|HPA|KS1|KS1	thailandamide	KS1	CP000085	IV_c
128	bryostatin|DQ889941|17900-34045|+|?|BryC|ABM63528|exoesterB|KS1|KS8	bryostatin	KS8	DQ889941	XIII
129	bryostatin|DQ889941|1344-17879|+|?|BryB|ABM63527|exoesterB|KS1|KS4	bryostatin	KS4	DQ889941	XIII
130	etnangien|NC_010162|3178-18618|+|?|EtnD|EtnD|eDB|KS2|KS2	etnangien	KS2	NC_010162	XIII
131	myxovirescin|CP000113|4740017-4755469|-|?|TaO|ABF92489|RetB|KS1|KS8	myxovirescin	KS8	CP000113	XIII
132	kalimantacin_batumin|GU479979|30833-46282|+|?|Bat3|ADD82941|RB|KS4|KS11	kalimantacin_batumin	KS11	GU479979	XIII
133	kalimantacin_batumin|GU479979|6732-30773|+|?|Bat2|ADD82940|RB|KS4|KS5	kalimantacin_batumin	KS5	GU479979	XIII
134	kalimantacin_batumin|GU479979|30833-46282|+|?|Bat3|ADD82941|exometB|KS3|KS10	kalimantacin_batumin	KS10	GU479979	XIII
135	difficidin|AJ634062|5847-18437|+|?|DifF|CAG23977|acryloyl|KS1|KS1	difficidin	KS1	AJ634062	II_f
136	corallopyronin|HM071004|34250-46456|-|?|CorK|ADI59533|eD|KS2|KS2b	corallopyronin	KS2b	HM071004	II_f
137	disorazole|DQ013294|15731-33766|+|?|DszA|AAY32964|ecrotonyl|KS2|KS2	disorazole	KS2	DQ013294	II_f
138	tartrolon|CP001614|2299866-2314709|+|?|TrtE|ACR12418|?|KS1|KS4	tartrolon	KS4	CP001614	II_f
139	elansolid_Cpin|CP001699|6708988-6722277|-|?|ElsP|ACU62721|H|KS2|KS12	elansolid_Cpin	KS12	CP001699	VI_f
140	elansolid_Csan|HQ680975|57483-70769|+|?|ElaQ|AEC04363|?|KS2|KS12	elansolid_Csan	KS12	HQ680975	VI_f
141	bryostatin|DQ889941|1344-17879|+|?|BryB|ABM63527|lH|KS4|KS7	bryostatin	KS7	DQ889941	VI_f
142	bryostatin|DQ889941|57787-72453|+|?|BryA|ABM63537|lH|KS2|KS2	bryostatin	KS2	DQ889941	VI_f
143	bryostatin|DQ889941|47226-57656|+|?|BryD|ABM63530|lH|KS1|KS12	bryostatin	KS12	DQ889941	VI_f
144	pederin|AY328023|36226-62031|+|?|PedF|AAS47564|lH|KS6|KS9	pederin	KS9	AY328023	VI_f
145	diaphorin|CP003468|230695-257754|+|?|DipT|AGS06887|?|KS6|KS9	diaphorin	KS9	CP003468	VI_f
146	luminaolid|KR857272|38760-53402|-|?|?|AKQ22680|?|?|KS9	luminaolid	KS9	KR857272	VI_f
147	tolytoxin|KR857271|34607-66052|+|?|?|AKQ22650|?|KS?|KS9	tolytoxin	KS9	KR857271	VI_f
148	misakinolide|KR857273|33050-60031|+|?|?|AKQ22698|lH|KS?|KS9	misakinolide	KS9	KR857273	VI_f
149	onnamide|AY688304|21358-36513|+|?|OnnI|AAV97877|lH|KS?|KS9	onnamide	KS9	AY688304	VI_f
150	phormidolide|ALVN01000014|339818-353110|-|?|?|EKU96420|?|KS3|KS11	phormidolide	KS11	ALVN01000014	VI_f
151	rhizoxins|AM411073|61823-74080|+|?|RhiE|CAL69893|lH|KS2|KS13	rhizoxins	KS13	AM411073	VI_f
152	kalimantacin_batumin|GU479979|6732-30773|+|?|Bat2|ADD82940|H|KS2|KS3	kalimantacin_batumin	KS3	GU479979	VI_f
153	sorangicin|HM584908|88020-97325|+|?|SorD|ADN68479|lH|KS2|KS14	sorangicin	KS14	HM584908	VI_f
154	sorangicin|HM584908|44097-68231|+|?|SorA|ADN68476|lH+alphalH|KS5|KS5	sorangicin	KS5	HM584908	VI_f
155	difficidin|AJ634062|30570-46184|+|?|DifI|CAJ57409|H|KS2|KS8	difficidin	KS8	AJ634062	VI_f
156	thailandamide|CP000085|2011510-2028396|-|?|BTH_II1674|ABC34832|H|KS2|KS2	thailandamide	KS2	CP000085	VI_f
157	oocydin_Ddad|CP001654|1652738-1673368|+|?|OocN|ACS85227|?|KS3|KS7	oocydin_Ddad	KS7	CP001654	VI_f
158	oocydin_Smar|JX315603|27847-47466|+|?|OocN|AFX60313|?|KS3|KS7	oocydin_Smar	KS7	JX315603	VI_f
159	bongkrekic_acid|JX173632|11410-35136|+|?|BonA|AFN27480|?|KS4|KS4	bongkrekic_acid	KS4	JX173632	VI_f
160	psymberin|FJ823461|20598-58535|+|?|PsyD|ADA82585|lH|KS7|KS9	psymberin	KS9	FJ823461	VI_f
161	chivosazole|DQ065771|22603-47856|+|?|ChiC|AAY89050|0dHdM|KS6|KS9	chivosazole	KS9	DQ065771	VI_d
162	misakinolide|KR857273|15190-33063|+|?|?|AKQ22699|0dH|KS?|KS3	misakinolide	KS3	KR857273	VI_d
163	luminaolid|KR857272|6257-23584|-|?|?|AKQ22682|?|?|KS3	luminaolid	KS3	KR857272	VI_d
164	tolytoxin|KR857271|4023-19067|+|?|?|AKQ22652|?|KS?|KS3	tolytoxin	KS3	KR857271	VI_d
165	rhizopodin|FR854394|6639-43580|+|?|RizB|CCA89326|?|KS3|KS3	rhizopodin	KS3	FR854394	VI_d
166	rhizopodin|FR854394|73223-85105|+|?|RizE|CCA89329|?|KS1|KS17	rhizopodin	KS17	FR854394	VI_d
167	rhizopodin|FR854394|49812-73226|+|?|RizD|CCA89328|?|KS3|KS13	rhizopodin	KS13	FR854394	VI_d
168	rhizopodin|FR854394|6639-43580|+|?|RizB|CCA89326|?|KS7|KS7	rhizopodin	KS7	FR854394	VI_d
169	sorangicin|HM584908|114338-122377|+|?|SorG|ADN68482|lH|KS2|KS19	sorangicin	KS19	HM584908	VI_e
170	tolytoxin|KR857271|34607-66052|+|?|?|AKQ22650|?|KS?|KS12	tolytoxin	KS12	KR857271	VI_e
171	misakinolide|KR857273|60103-73629|+|?|?|AKQ22697|dOMe|KS?|KS12	misakinolide	KS12	KR857273	VI_e
172	luminaolid|KR857272|60457-73968|+|?|?|AKQ22670|?|?|KS12	luminaolid	KS12	KR857272	VI_e
173	etnangien|NC_010162|40987-56199|+|?|EtnG|EtnG|lOMe|KS3|KS13	etnangien	KS13	NC_010162	VI_e
174	oxazolomycin|EF552687|52512-56120|+|?|OzmK|ABS90472|lOME|KS1|KS8	oxazolomycin	KS8	EF552687	VI_e
175	griseoviridin|JX508597|84740-91246|+|?|SgvE3|AGN74894|?|KS2|KS6	griseoviridin	KS6	JX508597	VI_b
176	virginiamycin|AB283030|26368-29991|-|?|VirG|BAF50721|dH|KS1|KS6	virginiamycin	KS6	AB283030	VI_b
177	tartrolon|CP001614|2314751-2328742|+|?|TrtF|ACR13065|?|KS1|KS9	tartrolon	KS9	CP001614	VI_b
178	griseoviridin|JX508597|64158-77825|+|?|SgvE1|AGN74892|?|KS2|KS2	griseoviridin	KS2	JX508597	VI_b
179	virginiamycin|AB283030|37068-57962|-|?|VirA|BAF50727|dHlM|KS2|KS2	virginiamycin	KS2	AB283030	VI_b
180	macrolactin|AJ634061|2329-14589|+|?|Pks2B|CAG23964|dH|KS2|KS2	macrolactin	KS2	AJ634061	VI_b
181	phormidolide|ALVN01000014|356649-378134|-|?|?|EKU96423|?|KS1|KS4	phormidolide	KS4	ALVN01000014	VI_c
182	myxovirescin|CP000113|4756846-4783794|-|?|Ta1|ABF85931|H|KS4|KS4	myxovirescin	KS4	CP000113	VI_c
183	mupirocin|AF318063|1706-10243|+|?|MmpA|AAM12909|dH|KS2|KS2	mupirocin	KS2	AF318063	VI_c
184	thailandamide|CP000085|1973189-1989889|-|?|BTH_II1666|ABC34675|H|KS3|KS11	thailandamide	KS11	CP000085	VI_c
185	phormidolide|ALVN01000014|356649-378134|-|?|?|EKU96423|?|KS2|KS5	phormidolide	KS5	ALVN01000014	VI_c
186	phormidolide|ALVN01000014|356649-378134|-|?|?|EKU96423|?|KS4|KS7	phormidolide	KS7	ALVN01000014	VI_c
187	myxovirescin|CP000113|4756846-4783794|-|?|Ta1|ABF85931|H|KS2|KS2	myxovirescin	KS2	CP000113	VI_c
188	rhizoxins|AM411073|31540-47247|+|?|RhiC|CAL69890|dH|KS3|KS8	rhizoxins	KS8	AM411073	VI_c
189	basiliskamides|NZ_AXBT01000013|102142-112479|-|?|P615_14880|WP_022584873|?|KS2|KS4	basiliskamides	KS4	NZ_AXBT01000013	VI_c
190	elansolid_Cpin|CP001699|6708988-6722277|-|?|ElsP|ACU62721|DM|KS1|KS11	elansolid_Cpin	KS11	CP001699	VI_c
191	elansolid_Csan|HQ680975|57483-70769|+|?|ElaQ|AEC04363|?|KS1|KS11	elansolid_Csan	KS11	HQ680975	VI_c
192	etnangien|NC_010162|66952-84873|+|?|EtnI|EtnI|dHlM|KS2|KS18	etnangien	KS18	NC_010162	VI_c
93	etnangien|NC_010162|66952-84873|+|?|EtnI|EtnI|dHlM|KS3|KS19	etnangien	KS19	NC_010162	VI_c
194	kalimantacin_batumin|GU479979|6732-30773|+|?|Bat2|ADD82940|H|KS3|KS4	kalimantacin_batumin	KS4	GU479979	VI_c
195	etnangien|NC_010162|30104-40990|+|?|EtnF|EtnF|dH|KS2|KS9	etnangien	KS9	NC_010162	VI_c
196	etnangien|NC_010162|3178-18618|+|?|EtnD|EtnD|dH|KS3|KS3	etnangien	KS3	NC_010162	VI_c
197	difficidin|AJ634062|18456-24752|+|?|DifG|CAG23978|H|KS1|KS4	difficidin	KS4	AJ634062	VI_c
198	diaphorin|CP003468|134072-149572|-|?|DipP|AGS06823|?|KS2|KS2	diaphorin	KS2	CP003468	VI_c
199	pederin|AY328023|4044-18689|+|?|PedI|AAR19304|dHlM|KS2|KS2	pederin	KS2	AY328023	VI_c
200	onnamide|AY688304|1783-14913|+|?|OnnB|AAV97870|dHlM|KS2|KS2	onnamide	KS2	AY688304	VI_c
201	nosperin|GQ979609|1-15963|+|?|NspA|ADA69237||KS2|KS2	nosperin	KS2	GQ979609	VI_c
202	bryostatin|DQ889941|47226-57656|+|?|BryD|ABM63530|0dH|KS2|KS13	bryostatin	KS13	DQ889941	VI_c
203	bryostatin|DQ889941|57787-72453|+|?|BryA|ABM63537|dH|KS3|KS3	bryostatin	KS3	DQ889941	VI_c
204	misakinolide|KR857273|60103-73629|+|?|?|AKQ22697|dH|KS?|KS13	misakinolide	KS13	KR857273	VI_c
205	tolytoxin|KR857271|34607-66052|+|?|?|AKQ22650|?|KS?|KS13	tolytoxin	KS13	KR857271	VI_c
206	luminaolid|KR857272|60457-73968|+|?|?|AKQ22670|?|?|KS13	luminaolid	KS13	KR857272	VI_c
207	misakinolide|KR857273|73623-97673|+|?|?|AKQ22696|dH|KS?|KS17	misakinolide	KS17	KR857273	VI_c
208	tolytoxin|KR857271|66122-90442|+|?|?|AKQ22649|?|KS?|KS17	tolytoxin	KS17	KR857271	VI_c
209	luminaolid|KR857272|74003-91126|+|?|?|AKQ22669|?|?|KS17	luminaolid	KS17	KR857272	VI_c
210	psymberin|FJ823461|20598-58535|+|?|PsyD|ADA82585|dH|KS3|KS5	psymberin	KS5	FJ823461	VI_c
211	onnamide|AY688304|21358-36513|+|?|OnnI|AAV97877|dH|KS3|KS6	onnamide	KS6	AY688304	VI_c
212	diaphorin|CP003468|230695-257754|+|?|DipT|AGS06887|?|KS3|KS6	diaphorin	KS6	CP003468	VI_c
213	pederin|AY328023|36226-62031|+|?|PedF|AAS47564|dH|KS3|KS6	pederin	KS6	AY328023	VI_c
214	thailanstatin|JX307851|46637-61204|+|?|TstGH|AGN11882|?|KS2|KS9	thailanstatin	KS9	JX307851	VI_c
215	dorrigocin_migrastatin|GQ274953|17568-41648|+|?|MgsF|ACY01391|betacyclic|KS1|KS4	dorrigocin_migrastatin	KS4	GQ274953	VI_c
216	cycloheximide|JX014302|9480-30236|+|?|ChxE|AFO59866|H|KS4|KS4	cycloheximide	KS4	JX014302	VI_c
217	9-methylstreptimidone|FR878059|13158-32300|+|?|SmdI|CCC21123|?|KS4|KS4	9-methylstreptimidone	KS4	FR878059	VI_c
218	chivosazole|DQ065771|22603-47856|+|?|ChiC|AAY89050|lH|KS5|KS8	chivosazole	KS8	DQ065771	VI_a
219	kirromycin|AM746336|48825-68021|+|?|KirAIV|CAN89634|lH|KS4|KS10	kirromycin	KS10	AM746336	VI_a
220	misakinolide|KR857273|15190-33063|+|?|?|AKQ22699|?|KS?|KS2	misakinolide	KS2	KR857273	VI_a
221	macrolactin|AJ634061|19379-28117|+|?|Pks2D|CAG23966|lH|KS2|KS6	macrolactin	KS6	AJ634061	VI_a
222	legioliulin|NZ_CM001371|438115-452475|-|?|LglD|WP_010652552|?|KS3|KS3	legioliulin	KS3	NZ_CM001371	VI_a
223	oocydin_Smar|JX315603|7252-18210|+|?|OocJ|AFX60309|?|KS2|KS2	oocydin_Smar	KS2	JX315603	XII_b
224	oocydin_Ddad|CP001654|1631306-1642741|+|?|OocJ|ACS85223|?|KS2|KS2	oocydin_Ddad	KS2	CP001654	XII_b
225	onnamide|AY688304|1783-14913|+|?|OnnB|AAV97870|exometB|KS3|KS3	onnamide	KS3	AY688304	XII_b
226	nosperin|GQ979609|1-15963|+|?|NspA|ADA69237||KS3|KS3	nosperin	KS3	GQ979609	XII_b
227	pederin|AY328023|4044-18689|+|?|PedI|AAR19304|exometB|KS3|KS3	pederin	KS3	AY328023	XII_b
228	diaphorin|CP003468|134072-149572|-|?|DipP|AGS06823|?|KS3|KS3	diaphorin	KS3	CP003468	XII_b
229	phormidolide|ALVN01000014|326750-339679|-|?|?|EKU96419|?|KS1|KS13	phormidolide	KS13	ALVN01000014	XII_b
230	phormidolide|ALVN01000014|378160-393333|-|?|?|EKU96424|?|KS2|KS2	phormidolide	KS2	ALVN01000014	XII_b
231	psymberin|FJ823461|4482-14375|+|?|PsyA|ADA82581|exometB|KS2|KS2	psymberin	KS2	FJ823461	XII_b
232	FR901464|HM047288|62806-70794|+|?|Fr9H|ADH01489|?|KS2|KS9	FR901464	KS9	HM047288	XII_a
233	thailanstatin|JX307851|46637-61204|+|?|TstGH|AGN11882|?|KS3|KS10	thailanstatin	KS10	JX307851	XII_a
234	macrolactin|AJ634061|40846-48228|+|?|Pks2G|CAG23969|H_D|KS2|KS11	macrolactin	KS11	AJ634061	XVIII
235	macrolactin|AJ634061|28110-35114|+|?|Pks2E|CAG23967|H_D|KS2|KS8	macrolactin	KS8	AJ634061	XVIII
236	chivosazole|DQ065771|76341-93941|+|?|ChiF|AAY89053|H_D|KS2|KS16	chivosazole	KS16	DQ065771	XVIII
237	chivosazole|DQ065771|47872-61797|+|?|ChiD|AAY89051|H_D|KS3|KS12	chivosazole	KS12	DQ065771	XVIII
238	chivosazole|DQ065771|22603-47856|+|?|ChiC|AAY89050|H_D|KS2|KS5	chivosazole	KS5	DQ065771	XVIII
239	leinamycin|AF484556|69681-82994|+|?|LnmI|AAN85522|zD|KS3|KS3	leinamycin	KS3	AF484556	XVIII
240	tartrolon|CP001614|2286203-2299822|+|?|TrtD|ACR13997|?|KS3|KS3	tartrolon	KS3	CP001614	XVIII
241	kirromycin|AM746336|25016-30997|+|?|KirAI|CAN89631|zcrotonyl|KS2|KS2	kirromycin	KS2	AM746336	XVIII
242	luminaolid|KR857272|6257-23584|-|?|?|AKQ22682|?|?|KS1	luminaolid	KS1	KR857272	I_b
243	tolytoxin|KR857271|4023-19067|+|?|?|AKQ22652|?|KS?|KS1	tolytoxin	KS1	KR857271	I_b
244	rhizopodin|FR854394|6639-43580|+|?|RizB|CCA89326|?|KS1|KS1	rhizopodin	KS1	FR854394	I_b
245	corallopyronin|HM071004|57906-69557|-|?|CorI|ADI59531|AGly|KS2|KS2	corallopyronin	KS2	HM071004	I_b
246	oxazolomycin|EF552687|20505-43718|+|?|OzmH|ABS90470|K|KS2|KS2	oxazolomycin	KS2	EF552687	I_b
247	thailandamide|CP000085|1999941-2011718|-|?|BTH_II1673|ABC35522|Aala|KS1|KS5	thailandamide	KS5	CP000085	I_a
248	seudotrienic_acid|AKJU01000004|15329-29989|-|?|?|EJM18770|?|KS1|KS4	seudotrienic_acid	KS4	AKJU01000004	I_a
249	myxovirescin|CP000113|4756846-4783794|-|?|Ta1|ABF85931|Agly|KS1|KS1	myxovirescin	KS1	CP000113	I_a
250	thailanstatin|JX307851|22470-46580|+|?|TstDEF|AGN11881|?|KS1|KS4	thailanstatin	KS4	JX307851	I_a
251	FR901464|HM047288|29945-35257|+|?|Fr9D|ADH01485|?|KS1|KS4	FR901464	KS4	HM047288	I_a
252	nosperin|GQ979609|17094-41852|+|?|NspC|ADA69239||KS2|KS5	nosperin	KS5	GQ979609	I_a
253	psymberin|FJ823461|20598-58535|+|?|PsyD|ADA82585|Agly|KS2|KS4	psymberin	KS4	FJ823461	I_a
254	onnamide|AY688304|21358-36513|+|?|OnnI|AAV97877|Agly|KS2|KS5	onnamide	KS5	AY688304	I_a
255	pederin|AY328023|36226-62031|+|?|PedF|AAS47564|Agly|KS2|KS5	pederin	KS5	AY328023	I_a
256	diaphorin|CP003468|230695-257754|+|?|DipT|AGS06887|?|KS2|KS5	diaphorin	KS5	CP003468	I_a
257	kalimantacin_batumin|GU479979|6732-30773|+|?|Bat2|ADD82940|AGly|KS1|KS2	kalimantacin_batumin	KS2	GU479979	I_a
258	bacillaene_Bamy|AJ634060|8427-23375|+|?|BaeJ|CAG23957|Agly|KS1|KS1	bacillaene_Bamy	KS1	AJ634060	I_a
259	bacillaene_Bsub|AL009126|1792806-1807937|+|?|PksJ|CAB13589|?|KS1|KS1	bacillaene_Bsub	KS1	AL009126	I_a
260	bacillaene_Bsub|AL009126|1834409-1850875|+|?|PksN|CAB13604|?|KS1|KS11	bacillaene_Bsub	KS11	AL009126	I_a
261	bacillaene_Bamy|AJ634060|47347-63648|+|?|BaeN|CAG23960|Aala|KS1|KS10	bacillaene_Bamy	KS10	AJ634060	I_a
262	oxazolomycin|EF552687|85129-87657|+|?|OzmQ|ABS90478|Agly|KS1|KS12	oxazolomycin	KS12	EF552687	I_a
263	oxazolomycin|EF552687|65423-80338|+|?|OzmN|ABS90475|Aser|KS1|KS9	oxazolomycin	KS9	EF552687	I_a
264	mupirocin|AF318063|63348-65585|+|?|MmpF|AAM12934|?|KS1|?	mupirocin	?	AF318063	I_a
265	malleilactone_burkholderic_acid|NC_007650|2545193-2553571|+|?|BurA|WP_011401503|?|KS1|KS1b	malleilactone_burkholderic_acid	KS1b	NC_007650	I_a
266	virginiamycin|AB283030|37068-57962|-|?|VirA|BAF50727|Agly|KS3|KS3	virginiamycin	KS3	AB283030	I_a
267	griseoviridin|JX508597|77828-84568|+|?|SgvE2|AGN74893|?|KS1|KS3	griseoviridin	KS3	JX508597	I_a
268	legioliulin|NZ_CM001371|438115-452475|-|?|LglD|WP_010652552|?|KS2|KS2	legioliulin	KS2	NZ_CM001371	II_c5
269	macrolactin|AJ634061|35129-40849|+|?|Pks2F|CAG23968|zD|KS1|KS9	macrolactin	KS9	AJ634061	II_c5
270	macrolactin|AJ634061|14589-19361|+|?|Pks2C|CAG23965|eD|KS1|KS4	macrolactin	KS4	AJ634061	II_c5
271	luminaolid|KR857272|23669-38767|-|?|?|AKQ22681|?|?|KS5	luminaolid	KS5	KR857272	II_c5
272	tolytoxin|KR857271|19089-34430|+|?|?|AKQ22651|?|KS?|KS5	tolytoxin	KS5	KR857271	II_c5
273	macrolactin|AJ634061|19379-28117|+|?|Pks2D|CAG23966|eD|KS1|KS5	macrolactin	KS5	AJ634061	II_c5
274	macrolactin|AJ634061|28110-35114|+|?|Pks2E|CAG23967|dH|KS1|KS7	macrolactin	KS7	AJ634061	II_c5
275	macrolactin|AJ634061|40846-48228|+|?|Pks2G|CAG23969|dH|KS1|KS10	macrolactin	KS10	AJ634061	II_c5
276	elansolid_Csan|HQ680975|43662-57434|+|?|ElaP|AEC04362|?|KS1|KS8	elansolid_Csan	KS8	HQ680975	II_c5
277	elansolid_Cpin|CP001699|6722326-6736092|-|?|ElsO|ACU62722|D|KS1|KS8	elansolid_Cpin	KS8	CP001699	II_c5
278	difficidin|AJ634062|46189-53907|+|?|DifJ|CAJ57410|zD|KS1|KS11	difficidin	KS11	AJ634062	II_c5
279	chivosazole|DQ065771|76341-93941|+|?|ChiF|AAY89053|eD|KS3|KS17	chivosazole	KS17	DQ065771	II_c5
280	chivosazole|DQ065771|22603-47856|+|?|ChiC|AAY89050|eD|KS3|KS6	chivosazole	KS6	DQ065771	II_c5
281	chivosazole|DQ065771|61825-76344|+|?|ChiE|AAY89052|zD|KS1|KS13	chivosazole	KS13	DQ065771	II_c5
282	disorazole|DQ013294|33783-52553|+|?|DszB|AAY32965|eD|KS3|KS7	disorazole	KS7	DQ013294	II_c5
283	kirromycin|AM746336|48825-68021|+|?|KirAIV|CAN89634|eDM|KS2|KS8	kirromycin	KS8	AM746336	II_c5
284	kirromycin|AM746336|48825-68021|+|?|KirAIV|CAN89634|eD|KS1|KS7	kirromycin	KS7	AM746336	II_c5
285	oxazolomycin|EF552687|65423-80338|+|?|OzmN|ABS90475|eD|KS2|KS10	oxazolomycin	KS10	EF552687	II_c5
286	lankacidin|NC_004808|15266-22306|-|?|LkcF|NP_851435|eD|KS1|KS3	lankacidin	KS3	NC_004808	II_c5
287	kirromycin|AM746336|68042-74902|+|?|KirAV|CAN89635|eD|KS1|KS12	kirromycin	KS12	AM746336	II_c5
288	kirromycin|AM746336|31022-44176|+|?|KirAII|CAN89632|eD|KS1|KS3	kirromycin	KS3	AM746336	II_c5
289	griseoviridin|JX508597|77828-84568|+|?|SgvE2|AGN74893|?|KS2|KS4	griseoviridin	KS4	JX508597	II_c5
290	virginiamycin|AB283030|37068-57962|-|?|VirA|BAF50727|eD|KS4|KS4	virginiamycin	KS4	AB283030	II_c5
291	leinamycin|AF484556|82991-105040|+|?|LnmJ|AAN85523|eD|KS1|KS4	leinamycin	KS4	AF484556	II_c5
292	oxazolomycin|EF552687|20505-43718|+|?|OzmH|ABS90470|eD|KS3|KS3	oxazolomycin	KS3	EF552687	II_c5
293	rhizopodin|FR854394|49812-73226|+|?|RizD|CCA89328|?|KS6|KS16	rhizopodin	KS16	FR854394	II_c5
294	rhizoxins|AM411073|61823-74080|+|?|RhiE|CAL69893|D|KS3|KS14	rhizoxins	KS14	AM411073	II_c4
295	dorrigocin_migrastatin|GQ274953|7943-17521|+|?|MgsE|ACY01390|D|KS2|KS2	dorrigocin_migrastatin	KS2	GQ274953	II_c4
296	9-methylstreptimidone|FR878059|13158-32300|+|?|SmdI|CCC21123|?|KS2|KS2	9-methylstreptimidone	KS2	FR878059	II_c4
297	cycloheximide|JX014302|9480-30236|+|?|ChxE|AFO59866|D|KS2|KS2	cycloheximide	KS2	JX014302	II_c4
298	oxazolomycin|EF552687|20505-43718|+|?|OzmH|ABS90470|eD|KS5|KS5	oxazolomycin	KS5	EF552687	II_c1
299	thailandamide|CP000085|1973189-1989889|-|?|BTH_II1666|ABC34675|eD|KS1|KS9	thailandamide	KS9	CP000085	II_c1
300	kalimantacin_batumin|GU479979|30833-46282|+|?|Bat3|ADD82941|zD|KS1|KS8	kalimantacin_batumin	KS8	GU479979	II_c1
301	difficidin|AJ634062|24765-30518|+|?|DifH|CAJ57408|zD|KS1|KS6	difficidin	KS6	AJ634062	II_c1
302	bacillaene_Bsub|AL009126|1821553-1834341|+|?|PksM|CAB13603|?|KS1|KS8	bacillaene_Bsub	KS8	AL009126	II_c1
303	bacillaene_Bamy|AJ634060|36822-47357|+|?|BaeM|CAG23959|zD|KS1|KS8	bacillaene_Bamy	KS8	AJ634060	II_c1
304	bacillaene_Bsub|AL009126|1807921-1821537|+|?|PksL|CAB13602|?|KS1|KS4	bacillaene_Bsub	KS4	AL009126	II_c1
305	bacillaene_Bamy|AJ634060|23377-36804|+|?|BaeL|CAG23958|zD|KS1|KS4	bacillaene_Bamy	KS4	AJ634060	II_c1
306	oocydin_Ddad|CP001654|1682511-1699349|+|?|OocS|ACS85232|?|KS2|KS14	oocydin_Ddad	KS14	CP001654	II_c1
307	oocydin_Smar|JX315603|56236-72084|+|?|OocS|AFX60318|?|KS2|KS14	oocydin_Smar	KS14	JX315603	II_c1
308	tolytoxin|KR857271|66122-90442|+|?|?|AKQ22649|?|KS?|KS15	tolytoxin	KS15	KR857271	II_c1
309	luminaolid|KR857272|74003-91126|+|?|?|AKQ22669|?|?|KS15	luminaolid	KS15	KR857272	II_c1
310	misakinolide|KR857273|73623-97673|+|?|?|AKQ22696|zD|KS?|KS15	misakinolide	KS15	KR857273	II_c1
311	etnangien|NC_010162|56196-66932|+|?|EtnH|EtnH|eD|KS2|KS16	etnangien	KS16	NC_010162	II_c3
312	thailanstatin|JX307851|46637-61204|+|?|TstGH|AGN11882|?|KS1|KS8	thailanstatin	KS8	JX307851	II_c3
313	FR901464|HM047288|53637-62690|+|?|Fr9G|ADH01488|?|KS1|KS8	FR901464	KS8	HM047288	II_c3
314	onnamide|AY688304|36519-40000|+|?|OnnJ|ETX03789|eD|KS2|KS12	onnamide	KS12	AY688304	II_c3
315	pederin|AY328023|63384-82184|+|?|PedH|AAS47562|D|KS3|KS12	pederin	KS12	AY328023	II_c3
316	phormidolide|ALVN01000014|326750-339679|-|?|?|EKU96419|?|KS2|KS14	phormidolide	KS14	ALVN01000014	II_c3
317	bryostatin|DQ889941|34048-47229|+|?|BryX|ABM63529|0|KS2|KS15	bryostatin	KS15	DQ889941	II_c3
318	bryostatin|DQ889941|1344-17879|+|?|BryB|ABM63527|eD|KS3|KS6	bryostatin	KS6	DQ889941	II_c3
319	rhizoxins|AM411073|11310-31478|+|?|RhiB|CAL69889|eD|KS4|KS5	rhizoxins	KS5	AM411073	II_c3
320	difficidin|AJ634062|53930-60082|+|?|DifK|CAJ57411|eD|KS1|KS13	difficidin	KS13	AJ634062	II_c3
321	thailandamide|CP000085|2011510-2028396|-|?|BTH_II1674|ABC34832|eD|KS3|KS3	thailandamide	KS3	CP000085	II_c3
322	mupirocin|AF318063|20958-40526|+|?|MmpD|AAM12913|eD|KS3|KS7	mupirocin	KS7	AF318063	II_c3
323	dorrigocin_migrastatin|GQ274953|17568-41648|+|?|MgsF|ACY01391|KdM|KS3|KS6	dorrigocin_migrastatin	KS6	GQ274953	II_c3
324	thailandamide|CP000085|1960098-1974047|-|?|BTH_II1665|ABC33986|eD|KS2|KS14	thailandamide	KS14	CP000085	II_c3
325	myxovirescin|CP000113|4756846-4783794|-|?|Ta1|ABF85931|eD|KS7|KS7	myxovirescin	KS7	CP000113	II_c3
326	thailandamide|CP000085|1973189-1989889|-|?|BTH_II1666|ABC34675|eD|KS4|KS12	thailandamide	KS12	CP000085	II_c3
327	mupirocin|AF318063|11325-17555|+|?|MmpB|AAM12911||KS1|KS4	mupirocin	KS4	AF318063	II_c3
328	mupirocin|AF318063|1706-10243|+|?|MmpA|AAM12909|dH|KS3|KS3	mupirocin	KS3	AF318063	II_c3
329	seudotrienic_acid|AKJU01000004|30085-40821|-|?|?|EJM18771|?|KS1|KS1	seudotrienic_acid	KS1	AKJU01000004	II_c3
330	thailandamide|CP000085|1999941-2011718|-|?|BTH_II1673|ABC35522|eD|KS2|KS6	thailandamide	KS6	CP000085	II_c3
331	bongkrekic_acid|JX173632|11410-35136|+|?|BonA|AFN27480|?|KS5|KS5	bongkrekic_acid	KS5	JX173632	II_c3
332	bongkrekic_acid|JX173632|45853-50970|+|?|BonC|AFN27482|?|KS1|KS9	bongkrekic_acid	KS9	JX173632	II_c3
333	bongkrekic_acid|JX173632|35078-45826|+|?|BonB|AFN27481|?|KS1|KS7	bongkrekic_acid	KS7	JX173632	II_c3
334	bongkrekic_acid|JX173632|51038-63328|+|?|BonD|AFN27483|?|KS2|KS11	bongkrekic_acid	KS11	JX173632	II_c3
335	sorangicin|HM584908|68228-83098|+|?|SorB|ADN68477|eD|KS3|KS10	sorangicin	KS10	HM584908	II_c3
336	sorangicin|HM584908|121857-133514|+|?|SorH|ADN68483|eD|KS2|KS21	sorangicin	KS21	HM584908	II_c3
337	sorangicin|HM584908|97325-112942|+|?|SorE|ADN68480|eD|KS3|KS17	sorangicin	KS17	HM584908	II_c3
338	kalimantacin_batumin|GU479979|6732-30773|+|?|Bat2|ADD82940|eD|KS5|KS6	kalimantacin_batumin	KS6	GU479979	II_c3
339	sorangicin|HM584908|133608-141434|+|?|SorI|ADN68484|zD|KS1|KS23	sorangicin	KS23	HM584908	II_c3
340	etnangien|NC_010162|3178-18618|+|?|EtnD|EtnD|eD|KS4|KS4	etnangien	KS4	NC_010162	II_c3
341	etnangien|NC_010162|18615-30101|+|?|EtnE|EtnE|eD|KS2|KS6	etnangien	KS6	NC_010162	II_c3
342	etnangien|NC_010162|18615-30101|+|?|EtnE|EtnE|eD|KS1|KS5	etnangien	KS5	NC_010162	II_c3
343	seudotrienic_acid|AKJU01000004|5752-15336|-|?|?|EJM18769|?|KS1|KS7	seudotrienic_acid	KS7	AKJU01000004	II_c3
344	elansolid_Cpin|CP001699|6722326-6736092|-|?|ElsO|ACU62722|?|KS3|KS10	elansolid_Cpin	KS10	CP001699	II_c3
345	elansolid_Csan|HQ680975|43662-57434|+|?|ElaP|AEC04362|?|KS3|KS10	elansolid_Csan	KS10	HQ680975	II_c3
346	elansolid_Cpin|CP001699|6744019-6761427|-|?|ElsJ|ACU62727|D|KS3|KS5	elansolid_Cpin	KS5	CP001699	II_c3
347	elansolid_Csan|HQ680975|18337-35742|+|?|ElaK|AEC04357|?|KS3|KS5	elansolid_Csan	KS5	HQ680975	II_c3
348	bacillaene_Bsub|AL009126|1807921-1821537|+|?|PksL|CAB13602|?|KS2|KS5	bacillaene_Bsub	KS5	AL009126	II_c3
349	bacillaene_Bamy|AJ634060|23377-36804|+|?|BaeL|CAG23958|eD|KS2|KS5	bacillaene_Bamy	KS5	AJ634060	II_c3
350	rhizoxins|AM411073|11310-31478|+|?|RhiB|CAL69889|OXZ|KS2|KS3	rhizoxins	KS3	AM411073	II_c2
351	leinamycin|AF484556|69681-82994|+|?|LnmI|AAN85522|OXZ|KS2|KS2	leinamycin	KS2	AF484556	II_c2
352	chivosazole|DQ065771|47872-61797|+|?|ChiD|AAY89051|OXZ|KS2|KS11	chivosazole	KS11	DQ065771	II_c2
353	rhizopodin|FR854394|49812-73226|+|?|RizD|CCA89328|?|KS2|KS12	rhizopodin	KS12	FR854394	II_c2
354	psymberin|FJ823461|20598-58535|+|?|PsyD|ADA82585|PY|KS5|KS7	psymberin	KS7	FJ823461	IX
355	thailanstatin|JX307851|22470-46580|+|?|TstDEF|AGN11881|?|KS3|KS6	thailanstatin	KS6	JX307851	IX
356	FR901464|HM047288|38867-53581|+|?|Fr9F|ADH01487|?|KS2|KS6	FR901464	KS6	HM047288	IX
357	bryostatin|DQ889941|17900-34045|+|?|BryC|ABM63528|PY|KS2|KS9	bryostatin	KS9	DQ889941	IX
358	oocydin_Smar|JX315603|27847-47466|+|?|OocN|AFX60313|?|KS4|KS8	oocydin_Smar	KS8	JX315603	IX
359	oocydin_Ddad|CP001654|1652738-1673368|+|?|OocN|ACS85227|?|KS4|KS8	oocydin_Ddad	KS8	CP001654	IX
360	sorangicin|HM584908|121857-133514|+|?|SorH|ADN68483|lPY|KS1|KS20	sorangicin	KS20	HM584908	IX
361	sorangicin|HM584908|68228-83098|+|?|SorB|ADN68477|lPY|KS2|KS9	sorangicin	KS9	HM584908	IX
362	sorangicin|HM584908|97325-112942|+|?|SorE|ADN68480|lPY|KS2|KS16	sorangicin	KS16	HM584908	IX
363	phormidolide|ALVN01000014|339818-353110|-|?|?|EKU96420|?|KS4|KS12	phormidolide	KS12	ALVN01000014	IX
364	misakinolide|KR857273|73623-97673|+|?|?|AKQ22696|PY|KS?|KS16	misakinolide	KS16	KR857273	IX
365	luminaolid|KR857272|74003-91126|+|?|?|AKQ22669|?|?|KS16	luminaolid	KS16	KR857272	IX
366	tolytoxin|KR857271|66122-90442|+|?|?|AKQ22649|?|KS?|KS16	tolytoxin	KS16	KR857271	IX
367	onnamide|AY688304|21358-36513|+|?|OnnI|AAV97877|PY|KS?|KS8	onnamide	KS8	AY688304	IX
368	pederin|AY328023|36226-62031|+|?|PedF|AAS47564|PY|KS5|KS8	pederin	KS8	AY328023	IX
369	diaphorin|CP003468|230695-257754|+|?|DipT|AGS06887|?|KS5|KS8	diaphorin	KS8	CP003468	IX
370	phormidolide|ALVN01000014|339818-353110|-|?|?|EKU96420|?|KS2|KS10	phormidolide	KS10	ALVN01000014	XVI
371	oocydin_Ddad|CP001654|1652738-1673368|+|?|OocN|ACS85227|?|KS2|KS6	oocydin_Ddad	KS6	CP001654	XVI
372	oocydin_Smar|JX315603|27847-47466|+|?|OocN|AFX60313|?|KS2|KS6	oocydin_Smar	KS6	JX315603	XVI
373	misakinolide|KR857273|15190-33063|+|?|?|AKQ22699|dOMe|KS?|KS4	misakinolide	KS4	KR857273	XIV
374	tolytoxin|KR857271|19089-34430|+|?|?|AKQ22651|?|KS?|KS4	tolytoxin	KS4	KR857271	XIV
375	luminaolid|KR857272|6257-23584|-|?|?|AKQ22682|?|?|KS4	luminaolid	KS4	KR857272	XIV
376	rhizopodin|FR854394|6639-43580|+|?|RizB|CCA89326|?|KS4|KS4	rhizopodin	KS4	FR854394	XIV
377	rhizopodin|FR854394|6639-43580|+|?|RizB|CCA89326|?|KS8|KS8	rhizopodin	KS8	FR854394	XIV
378	rhizopodin|FR854394|73223-85105|+|?|RizE|CCA89329|?|KS2|KS18	rhizopodin	KS18	FR854394	XIV
379	rhizopodin|FR854394|49812-73226|+|?|RizD|CCA89328|?|KS4|KS14	rhizopodin	KS14	FR854394	XIV
380	corallopyronin|HM071004|19308-34253|-|?|CorL|ADI59534|?|KS3|KS6b	corallopyronin	KS6b	HM071004	XIV
381	virginiamycin|AB283030|29985-32228|-|?|VirF|BAF50722|?|KS1|KS5	virginiamycin	KS5	AB283030	XIV
382	griseoviridin|JX508597|84740-91246|+|?|SgvE3|AGN74894|?|KS1|KS5	griseoviridin	KS5	JX508597	XIV
383	dorrigocin_migrastatin|GQ274953|7943-17521|+|?|MgsE|ACY01390|D?|KS3|KS3	dorrigocin_migrastatin	KS3	GQ274953	V
384	9-methylstreptimidone|FR878059|13158-32300|+|?|SmdI|CCC21123|?|KS3|KS3	9-methylstreptimidone	KS3	FR878059	V
385	cycloheximide|JX014302|9480-30236|+|?|ChxE|AFO59866|mchB|KS3|KS3	cycloheximide	KS3	JX014302	V
386	rhizoxins|AM411073|74139-81989|+|?|RhiF|CAL69894|mchB|KS1|KS15	rhizoxins	KS15	AM411073	V
387	myxovirescin|CP000113|4756846-4783794|-|?|Ta1|ABF85931|eDB|KS6|KS6	myxovirescin	KS6	CP000113	II_g
388	thailandamide|CP000085|1989915-1995620|-|?|BTH_II1667|ABC34176|eDB|KS1|KS7	thailandamide	KS7	CP000085	II_g
389	bongkrekic_acid|JX173632|11410-35136|+|?|BonA|AFN27480|?|KS2|KS2	bongkrekic_acid	KS2	JX173632	II_g
390	sorangicin|HM584908|44097-68231|+|?|SorA|ADN68476|zD|KS6|KS6	sorangicin	KS6	HM584908	II_g
391	elansolid_Csan|HQ680975|38576-43660|+|?|ElaO|AEC04361|?|KS1|KS6	elansolid_Csan	KS6	HQ680975	II_g
392	elansolid_Cpin|CP001699|6736094-6741184|-|?|ElsN|ACU62723|B|KS1|KS6	elansolid_Cpin	KS6	CP001699	II_g
393	bacillaene_Bamy|AJ634060|23377-36804|+|?|BaeL|CAG23958|eDB|KS3|KS6	bacillaene_Bamy	KS6	AJ634060	II_g
394	bacillaene_Bsub|AL009126|1807921-1821537|+|?|PksL|CAB13602|?|KS3|KS6	bacillaene_Bsub	KS6	AL009126	II_g
395	phormidolide|ALVN01000014|356649-378134|-|?|?|EKU96423|?|KS5|KS8	phormidolide	KS8	ALVN01000014	II_g
396	oocydin_Ddad|CP001654|1644110-1651615|+|?|OocL|ACS85225|?|KS2|KS4	oocydin_Ddad	KS4	CP001654	II_g
397	oocydin_Smar|JX315603|19591-26703|+|?|OocL|AFX60311|?|KS2|KS4	oocydin_Smar	KS4	JX315603	II_g
398	thailandamide|CP000085|1960098-1974047|-|?|BTH_II1665|ABC33986|eDB|KS1|KS13	thailandamide	KS13	CP000085	II_g
399	etnangien|NC_010162|18615-30101|+|?|EtnE|EtnE|eDB|KS3|KS7	etnangien	KS7	NC_010162	II_g
400	legioliulin|NZ_CM001371|438115-452475|-|?|LglD|WP_010652552|?|KS4|KS4	legioliulin	KS4	NZ_CM001371	X
401	psymberin|FJ823461|20598-58535|+|?|PsyD|ADA82585|KM|KS8|KS10	psymberin	KS10	FJ823461	X
402	thailandamide|CP000085|1973189-1989889|-|?|BTH_II1666|ABC34675|eD|KS2|KS10	thailandamide	KS10	CP000085	X
403	disorazole|DQ013294|33783-52553|+|?|DszB|AAY32965|zD|KS2|KS6	disorazole	KS6	DQ013294	II_e
404	oxazolomycin|EF552687|65423-80338|+|?|OzmN|ABS90475|zD|KS3|KS11	oxazolomycin	KS11	EF552687	II_e
405	disorazole|DQ013294|33783-52553|+|?|DszB|AAY32965|zD|KS1|KS5	disorazole	KS5	DQ013294	II_e
406	malleilactone_burkholderic_acid|NC_007650|2558633-2570779|+|?|BurF|WP_009894051|?|KS2|KS2	malleilactone_burkholderic_acid	KS2	NC_007650	II_d
407	thailandamide|CP000085|1960098-1974047|-|?|BTH_II1665|ABC33986|eDM|KS3|KS15	thailandamide	KS15	CP000085	II_d
408	elansolid_Cpin|CP001699|6761446-6769629|-|?|ElsI|ACU62728|D|KS2|KS2	elansolid_Cpin	KS2	CP001699	II_d
409	elansolid_Csan|HQ680975|10135-18318|+|?|ElaJ|AEC04356|?|KS2|KS2	elansolid_Csan	KS2	HQ680975	II_d
410	seudotrienic_acid|AKJU01000004|30085-40821|-|?|?|EJM18771|?|KS2|KS2	seudotrienic_acid	KS2	AKJU01000004	II_d
411	seudotrienic_acid|AKJU01000004|5752-15336|-|?|?|EJM18769|?|KS2|KS8	seudotrienic_acid	KS8	AKJU01000004	II_d
412	elansolid_Cpin|CP001699|6708988-6722277|-|?|ElsP|ACU62721|DM|KS3|KS13	elansolid_Cpin	KS13	CP001699	II_d
413	elansolid_Csan|HQ680975|57483-70769|+|?|ElaQ|AEC04363|?|KS3|KS13	elansolid_Csan	KS13	HQ680975	II_d
414	difficidin|AJ634062|5847-18437|+|?|DifF|CAG23977|eDM|KS2|KS2	difficidin	KS2	AJ634062	II_d
415	rhizoxins|AM411073|11310-31478|+|?|RhiB|CAL69889|eDM|KS3|KS4	rhizoxins	KS4	AM411073	II_d
416	misakinolide|KR857273|73623-97673|+|?|?|AKQ22696|eDM|KS?|KS18	misakinolide	KS18	KR857273	II_d
417	tolytoxin|KR857271|66122-90442|+|?|?|AKQ22649|?|KS?|KS18	tolytoxin	KS18	KR857271	II_d
418	bacillaene_Bsub|AL009126|1821553-1834341|+|?|PksM|CAB13603|?|KS2|KS9	bacillaene_Bsub	KS9	AL009126	II_d
419	bacillaene_Bamy|AJ634060|36822-47357|+|?|BaeM|CAG23959|zDM|KS2|KS9	bacillaene_Bamy	KS9	AJ634060	II_d
420	difficidin|AJ634062|30570-46184|+|?|DifI|CAJ57409|zDM|KS1|KS7	difficidin	KS7	AJ634062	II_d
421	sorangicin|HM584908|44097-68231|+|?|SorA|ADN68476|eDM|KS4|KS4	sorangicin	KS4	HM584908	II_d
422	sorangicin|HM584908|83100-88016|+|?|SorC|ADN68478|eD|KS1|KS12	sorangicin	KS12	HM584908	II_d
423	FR901464|HM047288|38867-53581|+|?|Fr9F|ADH01487|?|KS3|KS7	FR901464	KS7	HM047288	II_d
424	thailanstatin|JX307851|22470-46580|+|?|TstDEF|AGN11881|?|KS4|KS7	thailanstatin	KS7	JX307851	II_d
425	albicidin|AJ586576|30166-50805|+|?|AlbI|CAE52339|HM|KS2|KS2	albicidin	KS2	AJ586576	II_d
426	rhizoxins|AM411073|31540-47247|+|?|RhiC|CAL69890|eDM|KS1|KS6	rhizoxins	KS6	AM411073	II_d
427	lankacidin|NC_004808|24568-30156|-|?|LkcC|NP_851438|eDM|KS1|KS2	lankacidin	KS2	NC_004808	II_d
428	corallopyronin|HM071004|46456-57909|-|?|CorJ|ADI59532|0RM|KS2|KS5	corallopyronin	KS5	HM071004	II_d
429	chivosazole|DQ065771|76341-93941|+|?|ChiF|AAY89053|eDM|KS1|KS15	chivosazole	KS15	DQ065771	II_d
430	oxazolomycin|EF552687|20505-43718|+|?|OzmH|ABS90470|zDM|KS1|KS1	oxazolomycin	KS1	EF552687	II_d
431	chivosazole|DQ065771|22603-47856|+|?|ChiC|AAY89050|eD|KS4|KS7	chivosazole	KS7	DQ065771	II_d
432	leinamycin|AF484556|82991-105040|+|?|LnmJ|AAN85523|eDM|KS3|KS6	leinamycin	KS6	AF484556	II_d
433	corallopyronin|HM071004|19308-34253|-|?|CorL|ADI59534|?|KS4|KS7b	corallopyronin	KS7b	HM071004	II_d
434	tolytoxin|KR857271|34607-66052|+|?|?|AKQ22650|?|KS?|KS7	tolytoxin	KS7	KR857271	XV
435	luminaolid|KR857272|23669-38767|-|?|?|AKQ22681|?|?|KS7	luminaolid	KS7	KR857272	XV
436	misakinolide|KR857273|33050-60031|+|?|?|AKQ22698|lHlM|KS?|KS7	misakinolide	KS7	KR857273	XV
437	rhizoxins|AM411073|31540-47247|+|?|RhiC|CAL69890|lHdM|KS2|KS7	rhizoxins	KS7	AM411073	XV
438	psymberin|FJ823461|20598-58535|+|?|PsyD|ADA82585|dHdiM|KS4|KS6	psymberin	KS6	FJ823461	XV
439	phormidolide|ALVN01000014|356649-378134|-|?|?|EKU96423|?|KS3|KS6	phormidolide	KS6	ALVN01000014	XV
440	pederin|AY328023|36226-62031|+|?|PedF|AAS47564|dHdiM|KS4|KS7	pederin	KS7	AY328023	XV
441	diaphorin|CP003468|230695-257754|+|?|DipT|AGS06887|?|KS4|KS7	diaphorin	KS7	CP003468	XV
442	onnamide|AY688304|21358-36513|+|?|OnnI|AAV97877|dHdiM|KS?|KS7	onnamide	KS7	AY688304	XV
443	oocydin_Ddad|CP001654|1682511-1699349|+|?|OocS|ACS85232|?|KS1|KS13	oocydin_Ddad	KS13	CP001654	XV
444	oocydin_Smar|JX315603|56236-72084|+|?|OocS|AFX60318|?|KS1|KS13	oocydin_Smar	KS13	JX315603	XV
445	oxazolomycin|EF552687|43715-52495|+|?|OzmJ|ABS90471|lHlM|KS1|KS6	oxazolomycin	KS6	EF552687	XV
446	misakinolide|KR857273|33050-60031|+|?|?|AKQ22698|lMlH|KS?|KS10	misakinolide	KS10	KR857273	XV
447	luminaolid|KR857272|38760-53402|-|?|?|AKQ22680|?|?|KS10	luminaolid	KS10	KR857272	XV
448	tolytoxin|KR857271|34607-66052|+|?|?|AKQ22650|?|KS?|KS10	tolytoxin	KS10	KR857271	XV
449	psymberin|FJ823461|20598-58535|+|?|PsyD|ADA82585|lHdM|KS6|KS8	psymberin	KS8	FJ823461	XV
450	rhizoxins|AM411073|47298-59777|+|?|RhiD|CAL69891|dHM|KS1|KS9	rhizoxins	KS9	AM411073	XV
451	tolytoxin|KR857271|4023-19067|+|?|?|AKQ22652|?|KS?|KS2	tolytoxin	KS2	KR857271	II_b
452	luminaolid|KR857272|6257-23584|-|?|?|AKQ22682|?|?|KS2	luminaolid	KS2	KR857272	II_b
453	rhizoxins|AM411073|61823-74080|+|?|RhiE|CAL69893|shDdB|KS1|KS12	rhizoxins	KS12	AM411073	II_a
454	nosperin|GQ979609|17094-41852|+|?|NspC|ADA69239||KS4|KS7	nosperin	KS7	GQ979609	II_a
455	onnamide|AY688304|36519-40000|+|?|OnnJ|ETX03789|eD|KS1|KS11	onnamide	KS11	AY688304	II_a
456	pederin|AY328023|63384-82184|+|?|PedH|AAS47562|?|KS1|KS10	pederin	KS10	AY328023	VII
457	diaphorin|CP003468|149589-160181|-|?|DipO|AGS06824|?|KS1|KS10	diaphorin	KS10	CP003468	VII
458	oocydin_Smar|JX315603|19591-26703|+|?|OocL|AFX60311|?|KS1|KS3	oocydin_Smar	KS3	JX315603	VII
459	oocydin_Ddad|CP001654|1644110-1651615|+|?|OocL|ACS85225|?|KS1|KS3	oocydin_Ddad	KS3	CP001654	VII
460	luminaolid|KR857272|38760-53402|-|?|?|AKQ22680|?|?|KS8	luminaolid	KS8	KR857272	XI_a
461	tolytoxin|KR857271|34607-66052|+|?|?|AKQ22650|?|KS?|KS8	tolytoxin	KS8	KR857271	XI_a
462	misakinolide|KR857273|33050-60031|+|?|?|AKQ22698|lH|KS?|KS8	misakinolide	KS8	KR857273	XI_a
463	chivosazole|DQ065771|22603-47856|+|?|ChiC|AAY89050|dHdM|KS1|KS4	chivosazole	KS4	DQ065771	XI_a
464	disorazole|DQ013294|15731-33766|+|?|DszA|AAY32964|lHdiM|KS3|KS3	disorazole	KS3	DQ013294	XI_a
465	chivosazole|DQ065771|61825-76344|+|?|ChiE|AAY89052|lHlM|KS2|KS14	chivosazole	KS14	DQ065771	XI_b
466	difficidin|AJ634062|60079-66294|+|?|DifL|CAG23983|RM|KS1|KS14	difficidin	KS14	AJ634062	XI_b
467	sorangicin|HM584908|97325-112942|+|?|SorE|ADN68480|lHdM|KS1|KS15	sorangicin	KS15	HM584908	XI_b
468	bryostatin|DQ889941|1344-17879|+|?|BryB|ABM63527|KdiM|KS2|KS5	bryostatin	KS5	DQ889941	XI_b
469	bryostatin|DQ889941|17900-34045|+|?|BryC|ABM63528|?|KS3|KS10	bryostatin	KS10	DQ889941	XI_b
470	mupirocin|AF318063|20958-40526|+|?|MmpD|AAM12913|lHlM|KS2|KS6	mupirocin	KS6	AF318063	XI_b
471	myxovirescin|CP000113|4730911-4740024|-|?|TaP|ABF88102|RM|KS1|KS12	myxovirescin	KS12	CP000113	XI_b
472	mupirocin|AF318063|20958-40526|+|?|MmpD|AAM12913|zDM|KS4|KS8	mupirocin	KS8	AF318063	XI_b
473	dorrigocin_migrastatin|GQ274953|17568-41648|+|?|MgsF|ACY01391|eDM|KS4|KS7	dorrigocin_migrastatin	KS7	GQ274953	XI_b
474	dorrigocin_migrastatin|GQ274953|17568-41648|+|?|MgsF|ACY01391|dH|KS2|KS5	dorrigocin_migrastatin	KS5	GQ274953	XI_b
475	dorrigocin_migrastatin|GQ274953|17568-41648|+|?|MgsF|ACY01391|lHdM|KS5|KS8	dorrigocin_migrastatin	KS8	GQ274953	XI_b
476	cycloheximide|JX014302|9480-30236|+|?|ChxE|AFO59866|K|KS5|KS5	cycloheximide	KS5	JX014302	XI_b
477	9-methylstreptimidone|FR878059|13158-32300|+|?|SmdI|CCC21123|?|KS5|KS5	9-methylstreptimidone	KS5	FR878059	XI_b
478	thailanstatin|JX307851|22470-46580|+|?|TstDEF|AGN11881|?|KS2|KS5	thailanstatin	KS5	JX307851	XI_b
479	FR901464|HM047288|38867-53581|+|?|Fr9F|ADH01487|?|KS1|KS5	FR901464	KS5	HM047288	XI_b
480	bongkrekic_acid|JX173632|11410-35136|+|?|BonA|AFN27480|?|KS3|KS3	bongkrekic_acid	KS3	JX173632	XI_b
481	bongkrekic_acid|JX173632|51038-63328|+|?|BonD|AFN27483|?|KS1|KS10	bongkrekic_acid	KS10	JX173632	XI_b
482	etnangien|NC_010162|30104-40990|+|?|EtnF|EtnF|dHlM|KS1|KS8	etnangien	KS8	NC_010162	XI_b
483	elansolid_Csan|HQ680975|18337-35742|+|?|ElaK|AEC04357|?|KS2|KS4	elansolid_Csan	KS4	HQ680975	XI_b
484	elansolid_Cpin|CP001699|6744019-6761427|-|?|ElsJ|ACU62727|M|KS2|KS4	elansolid_Cpin	KS4	CP001699	XI_b
485	elansolid_Cpin|CP001699|6744019-6761427|-|?|ElsJ|ACU62727|DM|KS1|KS3	elansolid_Cpin	KS3	CP001699	XI_b
486	elansolid_Csan|HQ680975|18337-35742|+|?|ElaK|AEC04357|?|KS1|KS3	elansolid_Csan	KS3	HQ680975	XI_b
487	basiliskamides|NZ_AXBT01000013|102142-112479|-|?|P615_14880|WP_022584873|?|KS1|KS3	basiliskamides	KS3	NZ_AXBT01000013	XI_b
488	basiliskamides|NZ_AXBT01000013|112547-118546|-|?|P615_14885|WP_022584874|?|KS1|KS2	basiliskamides	KS2	NZ_AXBT01000013	XI_b
489	sorangicin|HM584908|88020-97325|+|?|SorD|ADN68479|lH+alphalH|KS1|KS13	sorangicin	KS13	HM584908	XI_b
490	sorangicin|HM584908|114338-122377|+|?|SorG|ADN68482|lHlM|KS1|KS18	sorangicin	KS18	HM584908	XI_b
491	sorangicin|HM584908|44097-68231|+|?|SorA|ADN68476|RdM|KS3|KS3	sorangicin	KS3	HM584908	XI_b
492	etnangien|NC_010162|66952-84873|+|?|EtnI|EtnI|RlM|KS1|KS17	etnangien	KS17	NC_010162	XI_b
493	chivosazole|DQ065771|5072-22603|+|?|ChiB|AAY89049|lHlM|KS3|KS3	chivosazole	KS3	DQ065771	XI_c
494	rhizopodin|FR854394|6639-43580|+|?|RizB|CCA89326|?|KS6|KS6	rhizopodin	KS6	FR854394	XI_c
495	rhizopodin|FR854394|43574-49810|+|?|RizC|CCA89327|?|KS1|KS9	rhizopodin	KS9	FR854394	XI_c
496	misakinolide|KR857273|33050-60031|+|?|?|AKQ22698|RlM|KS?|KS6	misakinolide	KS6	KR857273	XI_c
497	luminaolid|KR857272|23669-38767|-|?|?|AKQ22681|?|?|KS6	luminaolid	KS6	KR857272	XI_c
498	tolytoxin|KR857271|19089-34430|+|?|?|AKQ22651|?|KS?|KS6	tolytoxin	KS6	KR857271	XI_c
499	mycosubtilin|AF184956|3161-15076|+|?|MycA|AAF08795|?|KS1|KS1	mycosubtilin	KS1	AF184956	XVII
500	bacillomycin|AY137375|2130-14072|+|?|bamA|AAN07012|?|KS1|KS1	bacillomycin	KS1	AY137375	XVII
501	iturin|AB050629|5152-17100|+|?|ItuA|BAB69698|?|KS1|KS1	iturin	KS1	AB050629	XVII
502	kalimantacin_batumin|GU479979|30833-46282|+|?|Bat3|ADD82941|R|KS2|KS9	kalimantacin_batumin	KS9	GU479979	VIII
503	pederin|AY328023|63384-82184|+|?|PedH|AAS47562|R|KS2|KS11	pederin	KS11	AY328023	VIII
504	diaphorin|CP003468|149589-160181|-|?|DipO|AGS06824|?|KS2|KS11	diaphorin	KS11	CP003468	VIII
505	myxovirescin|CP000113|4740017-4755469|-|?|TaO|ABF92489|R|KS4|KS11	myxovirescin	KS11	CP000113	VIII
506	myxovirescin|CP000113|4740017-4755469|-|?|TaO|ABF92489|R|KS3|KS10	myxovirescin	KS10	CP000113	VIII
507	oocydin_Smar|JX315603|49446-56243|+|?|OocR|AFX60317|?|KS2|KS12	oocydin_Smar	KS12	JX315603	VIII
508	oocydin_Ddad|CP001654|1675427-1682518|+|?|OocR|ACS85231|?|KS2|KS12	oocydin_Ddad	KS12	CP001654	VIII
509	rhizoxins|AM411073|47298-59777|+|?|RhiD|CAL69891|shD|KS2|KS10	rhizoxins	KS10	AM411073	VIII
510	dorrigocin_migrastatin|GQ274953|41705-47566|+|?|MgsG|ACY01392|eD|KS1|KS10	dorrigocin_migrastatin	KS10	GQ274953	VIII
511	dorrigocin_migrastatin|GQ274953|17568-41648|+|?|MgsF|ACY01391|lH|KS6|KS9	dorrigocin_migrastatin	KS9	GQ274953	VIII
512	myxovirescin|CP000113|4756846-4783794|-|?|Ta1|ABF85931|R|KS5|KS5	myxovirescin	KS5	CP000113	VIII
513	difficidin|AJ634062|5847-18437|+|?|DifF|CAG23977|R|KS3|KS3	difficidin	KS3	AJ634062	VIII
514	difficidin|AJ634062|30570-46184|+|?|DifI|CAJ57409|R|KS3|KS9	difficidin	KS9	AJ634062	VIII
515	bacillaene_Bamy|AJ634060|8427-23375|+|?|BaeJ|CAG23957|R|KS2|KS2	bacillaene_Bamy	KS2	AJ634060	VIII
516	bacillaene_Bsub|AL009126|1792806-1807937|+|?|PksJ|CAB13589|?|KS2|KS2	bacillaene_Bsub	KS2	AL009126	VIII
517	bacillaene_Bamy|AJ634060|47347-63648|+|?|BaeN|CAG23960|shD|KS2|KS11	bacillaene_Bamy	KS11	AJ634060	VIII
518	bacillaene_Bsub|AL009126|1834409-1850875|+|?|PksN|CAB13604|?|KS2|KS12	bacillaene_Bsub	KS12	AL009126	VIII
519	bacillaene_Bamy|AJ634060|47347-63648|+|?|BaeN|CAG23960|shD|KS3|KS12	bacillaene_Bamy	KS12	AJ634060	VIII
520	bacillaene_Bsub|AL009126|1834409-1850875|+|?|PksN|CAB13604|?|KS3|KS13	bacillaene_Bsub	KS13	AL009126	VIII
521	myxovirescin|CP000113|4740017-4755469|-|?|TaO|ABF92489|R|KS2|KS9	myxovirescin	KS9	CP000113	VIII
522	bongkrekic_acid|JX173632|35078-45826|+|?|BonB|AFN27481|?|KS2|KS8	bongkrekic_acid	KS8	JX173632	VIII
523	oocydin_Smar|JX315603|27847-47466|+|?|OocN|AFX60313|?|KS5|KS9	oocydin_Smar	KS9	JX315603	VIII
524	oocydin_Ddad|CP001654|1652738-1673368|+|?|OocN|ACS85227|?|KS5|KS9	oocydin_Ddad	KS9	CP001654	VIII
525	phormidolide|ALVN01000014|378160-393333|-|?|?|EKU96424|?|KS3|KS3	phormidolide	KS3	ALVN01000014	VIII
526	sorangicin|HM584908|44097-68231|+|?|SorA|ADN68476|R|KS2|KS2	sorangicin	KS2	HM584908	VIII
527	sorangicin|HM584908|68228-83098|+|?|SorB|ADN68477|R|KS4|KS11	sorangicin	KS11	HM584908	VIII
528	etnangien|NC_010162|40987-56199|+|?|EtnG|EtnG|R|KS1|KS11	etnangien	KS11	NC_010162	VIII
529	FR901464|HM047288|70796-79954|+|?|Fr9I|ADH01490|?|KS2|KS11	FR901464	KS11	HM047288	noInfo
530	bongkrekic_acid|JX173632|11410-35136|+|?|BonA|AFN27480|?|KS1|KS1	bongkrekic_acid	KS1	JX173632	noInfo
531	chivosazole|DQ065771|5072-22603|+|?|ChiB|AAY89049|dH|KS2|KS2	chivosazole	KS2	DQ065771	noInfo
532	corallopyronin|HM071004|57906-69557|-|?|CorI|ADI59531|methoxycarbonyl|KS1|KS1	corallopyronin	KS1	HM071004	noInfo
533	corallopyronin|HM071004|57906-69557|-|?|CorI|ADI59531|eD|KS3|KS3	corallopyronin	KS3	HM071004	noInfo
534	corallopyronin|HM071004|46456-57909|-|?|CorJ|ADI59532|shD|KS1|KS4	corallopyronin	KS4	HM071004	noInfo
535	corallopyronin|HM071004|46456-57909|-|?|CorJ|ADI59532|RM|KS3|KS6	corallopyronin	KS6	HM071004	noInfo
536	corallopyronin|HM071004|34250-46456|-|?|CorK|ADI59533|acetyl|KS1|KS1b	corallopyronin	KS1b	HM071004	noInfo
537	corallopyronin|HM071004|34250-46456|-|?|CorK|ADI59533|eD|KS2|KS2b	corallopyronin	KS2b	HM071004	noInfo
538	corallopyronin|HM071004|34250-46456|-|?|CorK|ADI59533|R|KS3|KS3b	corallopyronin	KS3b	HM071004	noInfo
539	corallopyronin|HM071004|19308-34253|-|?|CorL|ADI59534|eDB|KS1|KS4b	corallopyronin	KS4b	HM071004	noInfo
540	corallopyronin|HM071004|19308-34253|-|?|CorL|ADI59534|R|KS2|KS5b	corallopyronin	KS5b	HM071004	noInfo
541	corallopyronin|HM071004|19308-34253|-|?|CorL|ADI59534|?|KS3|KS6b	corallopyronin	KS6b	HM071004	noInfo
542	corallopyronin|HM071004|19308-34253|-|?|CorL|ADI59534|?|KS4|KS7b	corallopyronin	KS7b	HM071004	noInfo
543	difficidin|AJ634062|46189-53907|+|?|DifJ|CAJ57410|?|KS2|KS12	difficidin	KS12	AJ634062	noInfo
544	disorazole|DQ013294|15731-33766|+|?|DszA|AAY32964|dH|KS4|KS4	disorazole	KS4	DQ013294	noInfo
545	enacyloxin|CP000442|439201-445806|-|?|Bamb_5924|ABI91469|?|KS1|KS2	enacyloxin	KS2	CP000442	noInfo
546	enacyloxin|CP000442|439201-445806|-|?|Bamb_5924|ABI91469|?|KS2|KS3	enacyloxin	KS3	CP000442	noInfo
547	enacyloxin|CP000442|433915-439152|-|?|Bamb_5923|ABI91468|?|KS1|KS4	enacyloxin	KS4	CP000442	noInfo
548	enacyloxin|CP000442|427850-433915|-|?|Bamb_5922|ABI91467|?|KS1|KS5	enacyloxin	KS5	CP000442	noInfo
549	enacyloxin|CP000442|418893-427850|-|?|Bamb_5921|ABI91466|?|KS2|KS7	enacyloxin	KS7	CP000442	noInfo
550	enacyloxin|CP000442|409955-418882|-|?|Bamb_5920|ABI91465|?|KS1|KS8	enacyloxin	KS8	CP000442	noInfo
551	enacyloxin|CP000442|409955-418882|-|?|Bamb_5920|ABI91465|?|KS2|KS9	enacyloxin	KS9	CP000442	noInfo
552	enacyloxin|CP000442|402538-409929|-|?|Bamb_5919|ABI91464|?|KS1|KS10	enacyloxin	KS10	CP000442	noInfo
553	etnangien|NC_010162|56196-66932|+|?|EtnH|EtnH|zD|KS1|KS15	etnangien	KS15	NC_010162	noInfo
554	kirromycin|AM746336|25016-30997|+|?|KirAI|CAN89631|_Ac|KS1|KS1	kirromycin	KS1	AM746336	noInfo
555	kirromycin|AM746336|31022-44176|+|?|KirAII|CAN89632|lHdiM|KS2|KS4	kirromycin	KS4	AM746336	noInfo
556	kirromycin|AM746336|31022-44176|+|?|KirAII|CAN89632|dH|KS3|KS5	kirromycin	KS5	AM746336	noInfo
557	kirromycin|AM746336|44173-48825|+|?|KirAIII|CAN89633|Agly|KS1|KS6	kirromycin	KS6	AM746336	noInfo
558	kirromycin|AM746336|48825-68021|+|?|KirAIV|CAN89634|KdM|KS3|KS9	kirromycin	KS9	AM746336	noInfo
559	kirromycin|AM746336|48825-68021|+|?|KirAIV|CAN89634|dH|KS5|KS11	kirromycin	KS11	AM746336	noInfo
560	lankacidin|NC_004808|31013-35881|-|?|LkcA|NP_851440|Agly|KS1|KS1	lankacidin	KS1	NC_004808	noInfo
561	lankacidin|NC_004808|15266-22306|-|?|LkcF|NP_851435|dH_eD|KS2|KS4	lankacidin	KS4	NC_004808	noInfo
562	lankacidin|NC_004808|12434-15214|-|?|LkcG|NP_851434|lHdM|KS1|KS5	lankacidin	KS5	NC_004808	noInfo
563	legioliulin|NZ_CM001371|438115-452475|-|?|LglD|WP_010652552|?|KS1|KS1	legioliulin	KS1	NZ_CM001371	noInfo
564	legioliulin|NZ_CM001371|434229-438122|-|?|LglE|WP_010652551|?|KS1|KS5	legioliulin	KS5	NZ_CM001371	noInfo
565	leinamycin|AF484556|82991-105040|+|?|LnmJ|AAN85523|K|KS2|KS5	leinamycin	KS5	AF484556	noInfo
566	leinamycin|AF484556|82991-105040|+|?|LnmJ|AAN85523|R|KS4|KS7	leinamycin	KS7	AF484556	noInfo
567	macrolactin|AJ634061|2329-14589|+|?|Pks2B|CAG23964|R|KS3|KS3	macrolactin	KS3	AJ634061	noInfo
568	malleilactone_burkholderic_acid|NC_007650|2545193-2553571|+|?|BurA|YP_440276|?|KS1|KS1b	malleilactone_burkholderic_acid	KS1b	NC_007650	noInfo
569	misakinolide|KR857273|15190-33063|+|?|?|AKQ22699|lH_or_dPY|KS?|KS5	misakinolide	KS5	KR857273	noInfo
570	psymberin|FJ823461|20598-58535|+|?|PsyD|ADA82585|K|KS9|KS11	psymberin	KS11	FJ823461	noInfo
571	rhizopodin|FR854394|6639-43580|+|?|RizB|CCA89326|?|KS2|KS2	rhizopodin	KS2	FR854394	noInfo
572	rhizopodin|FR854394|6639-43580|+|?|RizB|CCA89326|?|KS5|KS5	rhizopodin	KS5	FR854394	noInfo
573	rhizopodin|FR854394|49812-73226|+|?|RizD|CCA89328|?|KS5|KS15	rhizopodin	KS15	FR854394	noInfo
574	seudotrienic_acid|AKJU01000004|15329-29989|-|?|?|EJM18770|?|KS3|KS6	seudotrienic_acid	KS6	AKJU01000004	noInfo
575	tartrolon|CP001614|2286203-2299822|+|?|TrtD|ACR13997|?|KS2|KS2	tartrolon	KS2	CP001614	noInfo
576	tartrolon|CP001614|2299866-2314709|+|?|TrtE|ACR12418|?|KS3|KS6	tartrolon	KS6	CP001614	noInfo
577	tartrolon|CP001614|2299866-2314709|+|?|TrtE|ACR12418|?|KS4|KS7	tartrolon	KS7	CP001614	noInfo
578	tartrolon|CP001614|2299866-2314709|+|?|TrtE|ACR12418|?|KS5|KS8	tartrolon	KS8	CP001614	noInfo
579	tartrolon|CP001614|2314751-2328742|+|?|TrtF|ACR13065|?|KS2|KS10	tartrolon	KS10	CP001614	noInfo
580	tartrolon|CP001614|2314751-2328742|+|?|TrtF|ACR13065|?|KS3|KS11	tartrolon	KS11	CP001614	noInfo
581	pederin|AY426537|36226-62031|+|?|PedF|AAS47564|0hemi|KS1|KS4	pederin	KS4	AY426537	III_a
582	pederin|AY426537|63384-82184|+|?|PedH|AAS47562|0D|KS4|KS13	pederin	KS13	AY426537	III_d
583	pederin|AY426537|4044-18689|+|?|PedI|AAR19304|AcGNAT|KS1|KS1	pederin	KS1	AY426537	IV_b
584	pederin|AY426537|36226-62031|+|?|PedF|AAS47564|lH|KS6|KS9	pederin	KS9	AY426537	VI_f
585	pederin|AY426537|4044-18689|+|?|PedI|AAR19304|dHlM|KS2|KS2	pederin	KS2	AY426537	VI_c
586	pederin|AY426537|36226-62031|+|?|PedF|AAS47564|dH|KS3|KS6	pederin	KS6	AY426537	VI_c
587	pederin|AY426537|4044-18689|+|?|PedI|AAR19304|exometB|KS3|KS3	pederin	KS3	AY426537	XII_b
588	pederin|AY426537|36226-62031|+|?|PedF|AAS47564|Agly|KS2|KS5	pederin	KS5	AY426537	I_a
589	pederin|AY426537|63384-82184|+|?|PedH|AAS47562|D|KS3|KS12	pederin	KS12	AY426537	II_c3
590	pederin|AY426537|36226-62031|+|?|PedF|AAS47564|PY|KS5|KS8	pederin	KS8	AY426537	IX
591	pederin|AY426537|36226-62031|+|?|PedF|AAS47564|dHdiM|KS4|KS7	pederin	KS7	AY426537	XV
592	pederin|AY426537|63384-82184|+|?|PedH|AAS47562|?|KS1|KS10	pederin	KS10	AY426537	VII
593	pederin|AY426537|63384-82184|+|?|PedH|AAS47562|R|KS2|KS11	pederin	KS11	AY426537	VIII
594	enacyloxin|CP000442|427850-433915|-|?|Bamb_5922|ABI91467|?|KS2|KS6	enacyloxin	KS6	CP000442	noInfo
595	calyculin|AB933566|125766-140192|+|no_locus_tag|CalH|BAP05596|837-1272|KS1|KS27	calyculin	KS27	AB933566	III_a
596	calyculin|AB933566|51876-65756|+|no_locus_tag|CalC|BAP05591|1817-2236|KS2|KS9	calyculin	KS9	AB933566	II_c2
597	calyculin|AB933566|66955-90753|+|no_locus_tag|CalE|BAP05593|63-486|KS1|KS11	calyculin	KS11	AB933566	III_a
598	calyculin|AB933566|108337-125763|+|no_locus_tag|CalG|BAP05595|5164-5596|KS4|KS26	calyculin	KS26	AB933566	II_c3
599	calyculin|AB933566|31828-51879|+|no_locus_tag|CalB|BAP05590|79-502|KS1|KS4	calyculin	KS4	AB933566	III_a
600	calyculin|AB933566|66955-90753|+|no_locus_tag|CalE|BAP05593|6689-7104|KS7|KS17	calyculin	KS17	AB933566	XI_b
601	calyculin|AB933566|31828-51879|+|no_locus_tag|CalB|BAP05590|1852-2276|KS2|KS5	calyculin	KS5	AB933566	I_a
602	calyculin|AB933566|90764-108340|+|no_locus_tag|CalF|BAP05594|2053-2472|KS3|KS20	calyculin	KS20	AB933566	III_b
603	calyculin|AB933566|90764-108340|+|no_locus_tag|CalF|BAP05594|3125-3538|KS4|KS21	calyculin	KS21	AB933566	VI_e
604	calyculin|AB933566|51876-65756|+|no_locus_tag|CalC|BAP05591|1117-1535|KS1|KS8	calyculin	KS8	AB933566	III_c
605	calyculin|AB933566|108337-125763|+|no_locus_tag|CalG|BAP05595|3591-4011|KS3|KS25	calyculin	KS25	AB933566	II_g
606	calyculin|AB933566|20404-31761|+|no_locus_tag|CalA|BAP05589|1483-1904|KS1|KS2	calyculin	KS2	AB933566	I_a
607	calyculin|AB933566|90764-108340|+|no_locus_tag|CalF|BAP05594|785-1201|KS2|KS19	calyculin	KS19	AB933566	VI_c
608	calyculin|AB933566|31828-51879|+|no_locus_tag|CalB|BAP05590|4970-5398|KS4|KS7	calyculin	KS7	AB933566	III_a
609	calyculin|AB933566|108337-125763|+|no_locus_tag|CalG|BAP05595|555-966|KS1|KS23	calyculin	KS23	AB933566	XV
610	calyculin|AB933566|31828-51879|+|no_locus_tag|CalB|BAP05590|4229-4639|KS3|KS6	calyculin	KS6	AB933566	XI_b
611	calyculin|AB933566|66955-90753|+|no_locus_tag|CalE|BAP05593|4579-5008|KS5|KS15	calyculin	KS15	AB933566	III_b
612	calyculin|AB933566|125766-140192|+|no_locus_tag|CalH|BAP05596|2710-3133|KS2|KS28	calyculin	KS28	AB933566	I_a
613	calyculin|AB933566|66955-90753|+|no_locus_tag|CalE|BAP05593|1059-1489|KS2|KS12	calyculin	KS12	AB933566	noInfo
614	calyculin|AB933566|90764-108340|+|no_locus_tag|CalF|BAP05594|76-503|KS1|KS18	calyculin	KS18	AB933566	III_a
615	calyculin|AB933566|66955-90753|+|no_locus_tag|CalE|BAP05593|5314-5727|KS6|KS16	calyculin	KS16	AB933566	VI_e
616	calyculin|AB933566|66955-90753|+|no_locus_tag|CalE|BAP05593|3440-3841|KS4|KS14	calyculin	KS14	AB933566	XV
617	calyculin|AB933566|90764-108340|+|no_locus_tag|CalF|BAP05594|4754-5155|KS5|KS22	calyculin	KS22	AB933566	XV
618	calyculin|AB933566|108337-125763|+|no_locus_tag|CalG|BAP05595|2568-2990|KS2|KS24	calyculin	KS24	AB933566	II_d
619	calyculin|AB933566|2621-3850|+|no_locus_tag|CalW|BAP05575|9-409|KS1|KS1	calyculin	KS1	AB933566	XVIII
620	calyculin|AB933566|20404-31761|+|no_locus_tag|CalA|BAP05589|2240-2672|KS2|KS3	calyculin	KS3	AB933566	VIII
621	calyculin|AB933566|140205-148229|+|no_locus_tag|CalI|BAP05597|478-899|KS1|KS30	calyculin	KS30	AB933566	II_a
622	calyculin|AB933566|125766-140192|+|no_locus_tag|CalH|BAP05596|4187-4617|KS3|KS29	calyculin	KS29	AB933566	III_d
623	calyculin|AB933566|66955-90753|+|no_locus_tag|CalE|BAP05593|1813-2249|KS3|KS13	calyculin	KS13	AB933566	VIII
624	calyculin|AB933566|51876-65756|+|no_locus_tag|CalC|BAP05591|3276-3699|KS3|KS10	calyculin	KS10	AB933566	II_c3
